! ------------ AirfoilInfo v1.01.x Input File ----------------------------------
! s818_2702.dat Re=4,000,000 (windward modified the flat Cl section near stall)
! FROM Dayton Griffin, Sept 28'00, post stall combined with flat plate.  Foilchcked by Windward on 10-Oct-2000 at 10:23.
! note that this file uses Marshall Buhl's new input file processing; start all comment lines with !
! ------------------------------------------------------------------------------
"DEFAULT"     InterpOrd         ! Interpolation order to use for quasi-steady table lookup {1=linear; 3=cubic spline; "default"} [default=1]
          1   NonDimArea        ! The non-dimensional area of the airfoil (area/chord^2) (set to 1.0 if unsure or unneeded)
          0   NumCoords         ! The number of coordinates in the airfoil shape file.  Set to zero if coordinates not included.
! ......... x-y coordinates are next if NumCoords > 0 .............
          1   NumTabs           ! Number of airfoil tables in this file.
! ------------------------------------------------------------------------------
! data for table 1
! ------------------------------------------------------------------------------
          4   Re                ! Reynolds number in millions
          0   UserProp          ! User property (control) setting
True          InclUAdata        ! Is unsteady aerodynamics data included in this table? If TRUE, then include 30 UA coefficients below this line
!........................................
      -5.31   alpha0            ! 0-lift angle of attack, depends on airfoil.
       12.5   alpha1            ! Angle of attack at f=0.7, (approximately the stall angle) for AOA>alpha0. (deg)
      -12.5   alpha2            ! Angle of attack at f=0.7, (approximately the stall angle) for AOA<alpha0. (deg)
          1   eta_e             ! Recovery factor in the range [0.85 - 0.95] used only for UAMOD=1, it is set to 1 in the code when flookup=True. (-)
     6.1084   C_nalpha          ! Slope of the 2D normal force coefficient curve. (1/rad)
"Default"     T_f0              ! Initial value of the time constant associated with Df in the expression of Df and f''. [default = 3]
"Default"     T_V0              ! Initial value of the time constant associated with the vortex lift decay process; it is used in the expression of Cvn. It depends on Re,M, and airfoil class. [default = 6]
"Default"     T_p               ! Boundary-layer,leading edge pressure gradient time constant in the expression of Dp. It should be tuned based on airfoil experimental data. [default = 1.7]
"Default"     T_VL              ! Initial value of the time constant associated with the vortex advection process; it represents the non-dimensional time in semi-chords, needed for a vortex to travel from LE to trailing edge (TE); it is used in the expression of Cvn. It depends on Re, M (weakly), and airfoil. [valid range = 6 - 13, default = 11]
"Default"     b1                ! Constant in the expression of phi_alpha^c and phi_q^c.  This value is relatively insensitive for thin airfoils, but may be different for turbine airfoils. [from experimental results, defaults to 0.14]
"Default"     b2                ! Constant in the expression of phi_alpha^c and phi_q^c.  This value is relatively insensitive for thin airfoils, but may be different for turbine airfoils. [from experimental results, defaults to 0.53]
"Default"     b5                ! Constant in the expression of K'''_q,Cm_q^nc, and k_m,q.  [from  experimental results, defaults to 5]
"Default"     A1                ! Constant in the expression of phi_alpha^c and phi_q^c.  This value is relatively insensitive for thin airfoils, but may be different for turbine airfoils. [from experimental results, defaults to 0.3]
"Default"     A2                ! Constant in the expression of phi_alpha^c and phi_q^c.  This value is relatively insensitive for thin airfoils, but may be different for turbine airfoils. [from experimental results, defaults to 0.7]
"Default"     A5                ! Constant in the expression of K'''_q,Cm_q^nc, and k_m,q. [from experimental results, defaults to 1]
          0   S1                ! Constant in the f curve best-fit for alpha0<=AOA<=alpha1; by definition it depends on the airfoil. [ignored if UAMod<>1]
          0   S2                ! Constant in the f curve best-fit for         AOA> alpha1; by definition it depends on the airfoil. [ignored if UAMod<>1]
          0   S3                ! Constant in the f curve best-fit for alpha2<=AOA< alpha0; by definition it depends on the airfoil. [ignored if UAMod<>1]
          0   S4                ! Constant in the f curve best-fit for         AOA< alpha2; by definition it depends on the airfoil. [ignored if UAMod<>1]
      1.956   Cn1               ! Critical value of C0n at leading edge separation. It should be extracted from airfoil data at a given Mach and Reynolds number. It can be calculated from the static value of Cn at either the break in the pitching moment or the loss of chord force at the onset of stall. It is close to the condition of maximum lift of the airfoil at low Mach numbers.
       -0.8   Cn2               ! As Cn1 for negative AOAs.
"Default"     St_sh             ! Strouhal's shedding frequency constant.  [default = 0.19]
     0.0082   Cd0               ! 2D drag coefficient value at 0-lift.
          0   Cm0               ! 2D pitching moment coefficient about 1/4-chord location, at 0-lift, positive if nose up. [If the aerodynamics coefficients table does not include a column for Cm, this needs to be set to 0.0]
          0   k0                ! Constant in the \hat(x)_cp curve best-fit; = (\hat(x)_AC-0.25).  [ignored if UAMod<>1]
          0   k1                ! Constant in the \hat(x)_cp curve best-fit.  [ignored if UAMod<>1]
          0   k2                ! Constant in the \hat(x)_cp curve best-fit.  [ignored if UAMod<>1]
          0   k3                ! Constant in the \hat(x)_cp curve best-fit.  [ignored if UAMod<>1]
          0   k1_hat            ! Constant in the expression of Cc due to leading edge vortex effects.  [ignored if UAMod<>1]
"Default"     x_cp_bar          ! Constant in the expression of \hat(x)_cp^v. [ignored if UAMod<>1, default = 0.2]
"Default"     UACutout          ! Angle of attack above which unsteady aerodynamics are disabled (deg). [Specifying the string "Default" sets UACutout to 45 degrees]
"DEFAULT"     filtCutOff        ! Cut-off frequency (-3 dB corner frequency) for low-pass filtering the AoA input to UA, as well as the 1st and 2nd derivatives (Hz) [default = 20]
!........................................
! Table of aerodynamics coefficients
         57   NumAlf            ! Number of data lines in the following table
!    Alpha      Cl      Cd
!    (deg)      (-)     (-)
  -180.00	 -0.170	 0.0200
  -170.00	  0.640	 0.0500
  -160.00	  0.840	 0.3100
  -150.00	  1.080	 0.6200
  -140.00	  1.150	 0.9600
  -130.00	  1.090	 1.3000
  -120.00	  0.880	 1.5200
  -110.00	  0.600	 1.6600
  -100.00	  0.310	 1.7600
   -90.00	  0.000	 1.8000
   -80.00	 -0.310	 1.7600
   -70.00	 -0.600	 1.6600
   -60.00	 -0.880	 1.5200
   -50.00	 -1.090	 1.3000
   -40.00	 -1.150	 0.9600
   -30.00	 -1.080	 0.6200
   -20.00	 -0.840	 0.3100
   -10.00	 -0.640	 0.0144
    -8.00	 -0.480	 0.0124
    -6.00	 -0.090	 0.0082
    -5.00	  0.020	 0.0082
    -4.00	  0.130	 0.0082
    -3.00	  0.240	 0.0082
    -2.00	  0.350	 0.0086
    -1.00	  0.460	 0.0086
     0.00	  0.570	 0.0087
     1.00	  0.670	 0.0088
     2.00	  0.780	 0.0090
     3.00	  0.890	 0.0093
     4.00	  0.990	 0.0096
     5.00	  1.100	 0.0099
     6.00	  1.200	 0.0103
     7.00	  1.310	 0.0108
     8.00	  1.410	 0.0113
     9.00	  1.510	 0.0118
    10.00	  1.560	 0.0194
    11.00	  1.610	 0.0221
    12.00	  1.650	 0.0245
    13.00	  1.650	 0.0269
    14.00	  1.630	 0.0296
    15.00	  1.620	 0.0520
    30.00	  1.080	 0.6200
    40.00	  1.150	 0.9600
    50.00	  1.090	 1.3000
    60.00	  0.880	 1.5200
    70.00	  0.600	 1.6600
    80.00	  0.310	 1.7600
    90.00	  0.000	 1.8000
   100.00	 -0.310	 1.7600
   110.00	 -0.600	 1.6600
   120.00	 -0.880	 1.5200
   130.00	 -1.090	 1.3000
   140.00	 -1.150	 0.9600
   150.00	 -1.080	 0.6200
   160.00	 -0.840	 0.3100
   170.00	 -0.640	 0.0500
   180.00	 -0.170	 0.0200
